% Generated by IEEEtranS.bst, version: 1.12 (2007/01/11)
\begin{thebibliography}{10}
\providecommand{\url}[1]{#1}
\csname url@samestyle\endcsname
\providecommand{\newblock}{\relax}
\providecommand{\bibinfo}[2]{#2}
\providecommand{\BIBentrySTDinterwordspacing}{\spaceskip=0pt\relax}
\providecommand{\BIBentryALTinterwordstretchfactor}{4}
\providecommand{\BIBentryALTinterwordspacing}{\spaceskip=\fontdimen2\font plus
\BIBentryALTinterwordstretchfactor\fontdimen3\font minus
  \fontdimen4\font\relax}
\providecommand{\BIBforeignlanguage}[2]{{%
\expandafter\ifx\csname l@#1\endcsname\relax
\typeout{** WARNING: IEEEtranS.bst: No hyphenation pattern has been}%
\typeout{** loaded for the language `#1'. Using the pattern for}%
\typeout{** the default language instead.}%
\else
\language=\csname l@#1\endcsname
\fi
#2}}
\providecommand{\BIBdecl}{\relax}
\BIBdecl

\bibitem{moody-ipdps13}
\BIBentryALTinterwordspacing
D.~H. Ahn, M.~J. Brim, B.~R. de~Supinski, T.~Gamblin, G.~L. Lee, M.~P.
  Legendre, B.~P. Miller, A.~Moody, and M.~Schulz, ``Efficient and scalable
  retrieval techniques for global file properties,'' in \emph{Proceedings of
  the 2013 IEEE 27th International Symposium on Parallel and Distributed
  Processing}, ser. IPDPS '13.\hskip 1em plus 0.5em minus 0.4em\relax
  Washington, DC, USA: IEEE Computer Society, 2013, pp. 369--380. [Online].
  Available: \url{http://dx.doi.org/10.1109/IPDPS.2013.49}
\BIBentrySTDinterwordspacing

\bibitem{jaguar}
A.~Bland, R.~Kendall, D.~Kothe, J.~Rogers, and G.~Shipman, ``Jaguar: The
  world’s most powerful computer,'' in \emph{Proceedings of the Cray User
  Group Conference}, 2009.

\bibitem{titan}
A.~S. Bland, J.~C. Wells, O.~E. Messer, O.~R. Hernandez, and J.~H. Rogers,
  ``Titan: Early experience with the {Cray XK6 at Oak Ridge National
  Laboratory},'' in \emph{Proceedings of Cray User Group Conference (CUG
  2012)}, May 2012.

\bibitem{coral}
``Coral request for proposal b604142,'' \url{https://asc.llnl.gov/CORAL/},
  accessed: 2014-07-29.

\bibitem{dillow-ipccc}
D.~Dillow, S.~Oral, G.~M. Shipman, Z.~Zhang, and Y.~Kim, ``Enhancing {I/O}
  throughput via efficient routing and placement for large-scale parallel file
  systems,'' in \emph{Proceedings of the 30th {IEEE} Int'l Performance
  Computing and Communications Conference ({IPCCC} 2011)}, November 2011.

\bibitem{fairlio}
D.~A. Dillow, G.~M. Shipman, S.~Oral, and Z.~Zhang, ``{I/O} congestion
  avoidance via routing and object placement,'' in \emph{Proceedings of Cray
  User Group Conference (CUG 2011)}, 2011.

\bibitem{top500}
J.~Dongarra, H.~Meuer, and E.~Strohmaier, ``Top500 supercomputing sites,''
  \url{http://www.top500.org}, 2009.

\bibitem{ezell-gemini}
M.~Ezell, ``Understanding the impact of interconnect failures on system
  operation,'' in \emph{Proceedings of Cray User Group Conference (CUG 2013)},
  May 2013.

\bibitem{rtrplacement}
M.~Ezell, D.~A. Dillow, S.~Oral, F.~Wang, D.~Tiwari, D.~E. Maxwell,
  D.~Leverman, and J.~Hill, ``{I/O} router placement and fine-grained routing
  on {Titan} to support {Spider} {II},'' in \emph{Proceedings of Cray User
  Group Conference (CUG 2014)}, May 2014.

\bibitem{fileutils}
``File utilities for distributed systems,'' \url{http://fileutils.io/},
  accessed: 2014-04-18.

\bibitem{hawkes2005direct}
E.~R. Hawkes, R.~Sankaran, J.~C. Sutherland, and J.~H. Chen, ``Direct numerical
  simulation of turbulent combustion: fundamental insights towards predictive
  models,'' in \emph{Journal of Physics: Conference Series}, vol.~16,
  no.~1.\hskip 1em plus 0.5em minus 0.4em\relax IOP Publishing, 2005, p.~65.

\bibitem{Hill_BP_Widow}
J.~J. Hill, D.~B. Leverman, S.~M. Koch, and D.~A. Dillow, ``{Determining the
  health of Lustre filesystems at scale},'' in \emph{Proceedings of Cray User
  Group Conference (CUG 2010)}, May 2010.

\bibitem{matney-cug11}
G.~M.~S. Kenneth D.~Matney, Sr, ``Parallelism in system tools,'' in
  \emph{{Proceedings of the Cray User Goup conference (CUG} 2011)}, 2011.

\bibitem{spider1-workload-char}
Y.~Kim, R.~Gunasekaran, G.~M. Shipman, D.~Dillow, Z.~Zhang, and B.~W.
  Settlemyer, ``Workload characterization of a leadership class storage,'' in
  \emph{Proceedings of the 5th Petascale Data Storage Workshop Supercomputing
  '10 (PDSW'10) held in conjunction with SC'10}, November 2010.

\bibitem{kolano2010high}
P.~Z. Kolano and R.~B. Ciotti, ``High performance multi-node file copies and
  checksums for clustered file systems,'' in \emph{Proceedings of the 24th
  international conference on Large installation system administration}.\hskip
  1em plus 0.5em minus 0.4em\relax USENIX Association, 2010, pp. 1--8.

\bibitem{IOSI_fast2014}
Y.~Liu, R.~Gunasekaran, X.~Ma, and S.~S. Vazhkudai, ``{Automatic Identification
  of Applications I/O Signatures from Noisy Server-Side Traces},'' in
  \emph{Proceedings of the {USENIX} Conference on File and Storage Technologies
  (FAST 2014)}, February 2014.

\bibitem{matney-lci08}
K.~Matney, S.~Canon, , and S.~Oral, ``A first look at scalable i/o in linux
  commands,'' in \emph{{Proceedings of the 9th LCI International Conference on
  High-Performance Clustered Computing}}, 2008.

\bibitem{ddntool10:ross}
R.~Miller, J.~Hill, D.~A. Dillow, R.~Gunasekaran, G.~M. Shipman, and
  D.~Maxwell, ``Monitoring tools for large scale systems,'' in
  \emph{Proceedings of Cray User Group Conference (CUG 2010)}, May 2010.

\bibitem{gedi}
M.~Minich, ``{GEneric Diskless Installer},''
  \url{http://sourceforge.net/projects/gedi-tools/}, 2009.

\bibitem{mount2005office}
R.~P. Mount, ``The office of science data-management challenge,'' Stanford
  Linear Accelerator Center (SLAC), Tech. Rep., 2005.

\bibitem{nagios}
{Nagios Enterprises}, ``{Nagios},'' \url{http://www.nagios.org}.

\bibitem{bcfg2}
D.~Narayan, R.~Bradshaw, and J.~Hagedorn, ``System management methodologies
  with bcfg2,'' \emph{Login}, vol.~3, pp. 11--18, 2006.

\bibitem{benchmark-suite-loc}
{Oak Ridge Leadership Computing Facility}, ``{OLCF I/O} evaluation benchmark
  suite,''
  \url{http://www.olcf.ornl.gov/wp-content/uploads/2010/03/olcf3-benchmark-suite.tar.gz}.

\bibitem{lustre-best-practices}
``{OLCF Spider Best Practices},''
  \url{https://www.olcf.ornl.gov/kb_articles/spider-best-practices/}, accessed:
  2014-07-29.

\bibitem{obdfilter}
{Oracle Inc.}, ``Benchmarking lustre performance (lustre {I/O} kit),''
  \url{http://wiki.lustre.org/manual/LustreManual20_HTML/BenchmarkingTests.html}.

\bibitem{iorxt}
H.~Shan and J.~Shalf, ``Using {IOR} to analyze the {I/O} performance of
  {XT3},'' in \emph{Proceedings of the 49th {C}ray {U}ser {G}roup {(CUG)}
  Conference 2007}, Seattle, WA, 2007.

\bibitem{spider_cug12}
G.~M. Shipman, D.~A. Dillow, D.~Fuller, R.~Gunasekaran, J.~Hill, Y.~Kim,
  S.~Oral, D.~Reitz, J.~Simmons, and F.~Wang, ``{A Next-Generation Parallel
  File System Environment for the OLCF},'' in \emph{Proceedings of Cray User
  Group Conference (CUG 2012)}, May 2012.

\bibitem{Spider_CUG2009}
G.~M. Shipman, D.~A. Dillow, S.~Oral, and F.~Wang, ``The spider center wide
  file systems; from concept to reality,'' in \emph{Proceedings of the Cray
  User Group Conference (CUG)}, 2009.

\bibitem{Spider_CUG2010}
G.~M. Shipman, D.~A. Dillow, S.~Oral, F.~Wang, D.~Fuller, J.~Hill, and
  Z.~Zhang, ``Lessons learned in deploying the world’s largest scale lustre
  file system,'' in \emph{Proceedings of the Cray User Group Conference (CUG)},
  May 2010.

\bibitem{lustre}
{Sun Microsystems}, ``{Luste Wiki},'' \url{http://wiki.lustre.org}, 2009.

\bibitem{thai-disk}
``{Hard drive prices double after Thai floods},''
  \url{http://www.theinquirer.net/inquirer/news/2128270/hard-drive-prices-double-thai-floods},
  accessed: 2014-04-17.

\bibitem{OFED}
``{The OpenFabrics Alliance},'' \url{http://www.openfabrics.org/downloads},
  accessed: 2014-04-16.

\bibitem{libPIO}
F.~Wang, S.~Oral, S.~Gupta, D.~Tiwari, and S.~S. Vazhkudai, ``Improving
  large-scale storage system performance via topology-aware and balanced data
  placement,'' {Oak Ridge National Laboratory, National Center for
  Computational Sciences}, Tech. Rep., 2014, technical Report ORNL/TM-2014/286.

\bibitem{lustre-internals}
F.~Wang, S.~Oral, G.~Shipman, O.~Drokin, T.~Wang, and I.~Huang,
  ``{Understanding Lustre Filesystem Internals},'' {Oak Ridge National
  Laboratory, National Center for Computational Sciences}, Tech. Rep., 2009,
  technical Report ORNL/TM-2009/117.

\bibitem{yu2008performance}
W.~Yu, J.~S. Vetter, and H.~S. Oral, ``Performance characterization and
  optimization of parallel i/o on the cray xt,'' in \emph{Parallel and
  Distributed Processing, 2008. IPDPS 2008. IEEE International Symposium
  on}.\hskip 1em plus 0.5em minus 0.4em\relax IEEE, 2008, pp. 1--11.

\end{thebibliography}
